%YAML 1.1
%TAG !u! tag:unity3d.com,2011:
--- !u!114 &11400000
MonoBehaviour:
  m_ObjectHideFlags: 0
  m_PrefabParentObject: {fileID: 0}
  m_PrefabInternal: {fileID: 0}
  m_GameObject: {fileID: 0}
  m_Enabled: 1
  m_EditorHideFlags: 0
  m_Script: {fileID: 11500000, guid: 8e6292b2c06870d4495f009f912b9600, type: 3}
  m_Name: PostProcessing Profile
  m_EditorClassIdentifier: 
  settings:
  - {fileID: 114604576416301750}
  - {fileID: 114828124157580936}
  - {fileID: 114194451828975108}
  - {fileID: 114567949065049986}
  - {fileID: 114198417885791446}
  - {fileID: 114319397189551730}
  - {fileID: 114883651421558674}
  - {fileID: 114708944431218556}
--- !u!114 &114194451828975108
MonoBehaviour:
  m_ObjectHideFlags: 3
  m_PrefabParentObject: {fileID: 0}
  m_PrefabInternal: {fileID: 0}
  m_GameObject: {fileID: 0}
  m_Enabled: 1
  m_EditorHideFlags: 0
  m_Script: {fileID: 11500000, guid: 6050e2d5de785ce4d931e4dbdbf2d755, type: 3}
  m_Name: ChromaticAberration
  m_EditorClassIdentifier: 
  active: 0
  enabled:
    overrideState: 1
    value: 1
  spectralLut:
    overrideState: 0
    value: {fileID: 0}
  intensity:
    overrideState: 0
    value: 0
  mobileOptimized:
    overrideState: 0
    value: 0
--- !u!114 &114198417885791446
MonoBehaviour:
  m_ObjectHideFlags: 3
  m_PrefabParentObject: {fileID: 0}
  m_PrefabInternal: {fileID: 0}
  m_GameObject: {fileID: 0}
  m_Enabled: 1
  m_EditorHideFlags: 0
  m_Script: {fileID: 11500000, guid: 556797029e73b2347956b6579e77e05b, type: 3}
  m_Name: DepthOfField
  m_EditorClassIdentifier: 
  active: 0
  enabled:
    overrideState: 1
    value: 1
  focusDistance:
    overrideState: 0
    value: 10
  aperture:
    overrideState: 0
    value: 5.6
  focalLength:
    overrideState: 0
    value: 50
  kernelSize:
    overrideState: 0
    value: 1
--- !u!114 &114319397189551730
MonoBehaviour:
  m_ObjectHideFlags: 3
  m_PrefabParentObject: {fileID: 0}
  m_PrefabInternal: {fileID: 0}
  m_GameObject: {fileID: 0}
  m_Enabled: 1
  m_EditorHideFlags: 0
  m_Script: {fileID: 11500000, guid: d65e486e4de6e5448a8fbb43dc8756a0, type: 3}
  m_Name: Grain
  m_EditorClassIdentifier: 
  active: 1
  enabled:
    overrideState: 1
    value: 1
  colored:
    overrideState: 1
    value: 0
  intensity:
    overrideState: 1
    value: 0.15
  size:
    overrideState: 1
    value: 1
  lumContrib:
    overrideState: 1
    value: 0.8
--- !u!114 &114567949065049986
MonoBehaviour:
  m_ObjectHideFlags: 3
  m_PrefabParentObject: {fileID: 0}
  m_PrefabInternal: {fileID: 0}
  m_GameObject: {fileID: 0}
  m_Enabled: 1
  m_EditorHideFlags: 0
  m_Script: {fileID: 11500000, guid: adb84e30e02715445aeb9959894e3b4d, type: 3}
  m_Name: ColorGrading
  m_EditorClassIdentifier: 
  active: 1
  enabled:
    overrideState: 1
    value: 1
  gradingMode:
    overrideState: 1
    value: 1
  externalLut:
    overrideState: 1
    value: {fileID: 0}
  tonemapper:
    overrideState: 1
    value: 2
  toneCurveToeStrength:
    overrideState: 1
    value: 0
  toneCurveToeLength:
    overrideState: 1
    value: 0.5
  toneCurveShoulderStrength:
    overrideState: 1
    value: 0
  toneCurveShoulderLength:
    overrideState: 1
    value: 0.5
  toneCurveShoulderAngle:
    overrideState: 1
    value: 0
  toneCurveGamma:
    overrideState: 1
    value: 1
  logLut:
    overrideState: 1
    value: {fileID: 0}
  ldrLut:
    overrideState: 1
    value: {fileID: 0}
  temperature:
    overrideState: 1
    value: 0
  tint:
    overrideState: 1
    value: 0
  colorFilter:
    overrideState: 1
    value: {r: 1, g: 1, b: 1, a: 1}
  hueShift:
    overrideState: 1
    value: 0
  saturation:
    overrideState: 1
    value: 0
  brightness:
    overrideState: 1
    value: 0
  postExposure:
    overrideState: 1
    value: 0
  contrast:
    overrideState: 1
    value: 0
  mixerRedOutRedIn:
    overrideState: 1
    value: 100
  mixerRedOutGreenIn:
    overrideState: 1
    value: 0
  mixerRedOutBlueIn:
    overrideState: 1
    value: 0
  mixerGreenOutRedIn:
    overrideState: 1
    value: 0
  mixerGreenOutGreenIn:
    overrideState: 1
    value: 100
  mixerGreenOutBlueIn:
    overrideState: 1
    value: 0
  mixerBlueOutRedIn:
    overrideState: 1
    value: 0
  mixerBlueOutGreenIn:
    overrideState: 1
    value: 0
  mixerBlueOutBlueIn:
    overrideState: 1
    value: 100
  lift:
    overrideState: 1
    value: {x: 1, y: 1, z: 1, w: 0}
  gamma:
    overrideState: 1
    value: {x: 1, y: 1, z: 1, w: 0}
  gain:
    overrideState: 1
    value: {x: 1, y: 1, z: 1, w: 0}
  masterCurve:
    overrideState: 1
    value:
      curve:
        serializedVersion: 2
        m_Curve:
        - serializedVersion: 2
          time: 0
          value: 0
          inSlope: 1
          outSlope: 1
          tangentMode: 0
        - serializedVersion: 2
          time: 1
          value: 1
          inSlope: 1
          outSlope: 1
          tangentMode: 0
        m_PreInfinity: 2
        m_PostInfinity: 2
        m_RotationOrder: 4
      m_Loop: 0
      m_ZeroValue: 0
      m_Range: 1
  redCurve:
    overrideState: 1
    value:
      curve:
        serializedVersion: 2
        m_Curve:
        - serializedVersion: 2
          time: 0
          value: 0
          inSlope: 1
          outSlope: 1
          tangentMode: 0
        - serializedVersion: 2
          time: 1
          value: 1
          inSlope: 1
          outSlope: 1
          tangentMode: 0
        m_PreInfinity: 2
        m_PostInfinity: 2
        m_RotationOrder: 4
      m_Loop: 0
      m_ZeroValue: 0
      m_Range: 1
  greenCurve:
    overrideState: 1
    value:
      curve:
        serializedVersion: 2
        m_Curve:
        - serializedVersion: 2
          time: 0
          value: 0
          inSlope: 1
          outSlope: 1
          tangentMode: 0
        - serializedVersion: 2
          time: 1
          value: 1
          inSlope: 1
          outSlope: 1
          tangentMode: 0
        m_PreInfinity: 2
        m_PostInfinity: 2
        m_RotationOrder: 4
      m_Loop: 0
      m_ZeroValue: 0
      m_Range: 1
  blueCurve:
    overrideState: 1
    value:
      curve:
        serializedVersion: 2
        m_Curve:
        - serializedVersion: 2
          time: 0
          value: 0
          inSlope: 1
          outSlope: 1
          tangentMode: 0
        - serializedVersion: 2
          time: 1
          value: 1
          inSlope: 1
          outSlope: 1
          tangentMode: 0
        m_PreInfinity: 2
        m_PostInfinity: 2
        m_RotationOrder: 4
      m_Loop: 0
      m_ZeroValue: 0
      m_Range: 1
  hueVsHueCurve:
    overrideState: 1
    value:
      curve:
        serializedVersion: 2
        m_Curve: []
        m_PreInfinity: 2
        m_PostInfinity: 2
        m_RotationOrder: 0
      m_Loop: 1
      m_ZeroValue: 0.5
      m_Range: 1
  hueVsSatCurve:
    overrideState: 1
    value:
      curve:
        serializedVersion: 2
        m_Curve: []
        m_PreInfinity: 2
        m_PostInfinity: 2
        m_RotationOrder: 4
      m_Loop: 1
      m_ZeroValue: 0.5
      m_Range: 1
  satVsSatCurve:
    overrideState: 1
    value:
      curve:
        serializedVersion: 2
        m_Curve: []
        m_PreInfinity: 2
        m_PostInfinity: 2
        m_RotationOrder: 4
      m_Loop: 0
      m_ZeroValue: 0.5
      m_Range: 1
  lumVsSatCurve:
    overrideState: 1
    value:
      curve:
        serializedVersion: 2
        m_Curve: []
        m_PreInfinity: 2
        m_PostInfinity: 2
        m_RotationOrder: 4
      m_Loop: 0
      m_ZeroValue: 0.5
      m_Range: 1
--- !u!114 &114604576416301750
MonoBehaviour:
  m_ObjectHideFlags: 3
  m_PrefabParentObject: {fileID: 0}
  m_PrefabInternal: {fileID: 0}
  m_GameObject: {fileID: 0}
  m_Enabled: 1
  m_EditorHideFlags: 0
  m_Script: {fileID: 11500000, guid: b3f6f3f7c722b4544b97e3c75840aa33, type: 3}
  m_Name: AutoExposure
  m_EditorClassIdentifier: 
  active: 1
  enabled:
    overrideState: 1
    value: 1
  filtering:
    overrideState: 1
    value: {x: 50, y: 95}
  minLuminance:
    overrideState: 1
    value: 0
  maxLuminance:
    overrideState: 1
    value: 0
  keyValue:
    overrideState: 1
    value: 1
  eyeAdaptation:
    overrideState: 1
    value: 0
  speedUp:
    overrideState: 1
    value: 2
  speedDown:
    overrideState: 1
    value: 1
--- !u!114 &114708944431218556
MonoBehaviour:
  m_ObjectHideFlags: 3
  m_PrefabParentObject: {fileID: 0}
  m_PrefabInternal: {fileID: 0}
  m_GameObject: {fileID: 0}
  m_Enabled: 1
  m_EditorHideFlags: 0
  m_Script: {fileID: 11500000, guid: 40b924e2dad56384a8df2a1e111bb675, type: 3}
  m_Name: Vignette
  m_EditorClassIdentifier: 
  active: 0
  enabled:
    overrideState: 1
    value: 1
  mode:
    overrideState: 0
    value: 0
  color:
    overrideState: 0
    value: {r: 0, g: 0, b: 0, a: 1}
  center:
    overrideState: 0
    value: {x: 0.5, y: 0.5}
  intensity:
    overrideState: 0
    value: 0
  smoothness:
    overrideState: 0
    value: 0.2
  roundness:
    overrideState: 0
    value: 1
  rounded:
    overrideState: 0
    value: 0
  mask:
    overrideState: 0
    value: {fileID: 0}
  opacity:
    overrideState: 0
    value: 1
--- !u!114 &114828124157580936
MonoBehaviour:
  m_ObjectHideFlags: 3
  m_PrefabParentObject: {fileID: 0}
  m_PrefabInternal: {fileID: 0}
  m_GameObject: {fileID: 0}
  m_Enabled: 1
  m_EditorHideFlags: 0
  m_Script: {fileID: 11500000, guid: 48a79b01ea5641d4aa6daa2e23605641, type: 3}
  m_Name: Bloom
  m_EditorClassIdentifier: 
  active: 1
  enabled:
    overrideState: 1
    value: 1
  intensity:
    overrideState: 1
    value: 5
  threshold:
    overrideState: 1
    value: 1
  softKnee:
    overrideState: 1
    value: 0.5
  diffusion:
    overrideState: 1
    value: 7
  color:
    overrideState: 1
    value: {r: 1, g: 1, b: 1, a: 1}
  mobileOptimized:
    overrideState: 1
    value: 0
  lensTexture:
    overrideState: 1
    value: {fileID: 0}
  lensIntensity:
    overrideState: 1
    value: 1
--- !u!114 &114883651421558674
MonoBehaviour:
  m_ObjectHideFlags: 3
  m_PrefabParentObject: {fileID: 0}
  m_PrefabInternal: {fileID: 0}
  m_GameObject: {fileID: 0}
  m_Enabled: 1
  m_EditorHideFlags: 0
  m_Script: {fileID: 11500000, guid: b94fcd11afffcb142908bfcb1e261fba, type: 3}
  m_Name: MotionBlur
  m_EditorClassIdentifier: 
  active: 1
  enabled:
    overrideState: 1
    value: 1
  shutterAngle:
    overrideState: 1
    value: 360
  sampleCount:
    overrideState: 1
    value: 32
